A/bcd_to_bin/peripheral_bcd_to_bin_TB.vcd
$date
	Sun Nov 23 19:54:51 2025
$end
$version
	Icarus Verilog
$end
$timescale
	1ps
$end
$scope module peripheral_bcd_to_bin_TB $end
$var wire 32 ! d_out [31:0] $end
$var parameter 32 " PERIOD $end
$var reg 5 # addr [4:0] $end
$var reg 1 $ clk $end
$var reg 1 % cs $end
$var reg 16 & d_in [15:0] $end
$var reg 1 ' rd $end
$var reg 1 ( reset $end
$var reg 1 ) wr $end
$scope module uut $end
$var wire 5 * addr [4:0] $end
$var wire 1 $ clk $end
$var wire 1 % cs $end
$var wire 20 + d_in [19:0] $end
$var wire 1 ' rd $end
$var wire 1 ( reset $end
$var wire 1 ) wr $end
$var wire 1 , done $end
$var wire 16 - bin [15:0] $end
$var reg 20 . bcd_in [19:0] $end
$var reg 32 / d_out [31:0] $end
$var reg 1 0 init $end
$var reg 5 1 s [4:0] $end
$scope module bcd2bin0 $end
$var wire 20 2 bcd [19:0] $end
$var wire 1 $ clk $end
$var wire 1 0 init $end
$var wire 1 ( rst $end
$var wire 1 3 w_z $end
$var wire 1 4 w_sub $end
$var wire 1 5 w_sh $end
$var wire 5 6 w_sel_sub [4:0] $end
$var wire 5 7 w_ge5 [4:0] $end
$var wire 1 8 w_dec $end
$var wire 36 9 w_A_next [35:0] $end
$var wire 36 : w_A [35:0] $end
$var wire 4 ; unit [3:0] $end
$var wire 4 < mill [3:0] $end
$var wire 1 , done $end
$var wire 4 = dmill [3:0] $end
$var wire 4 > dece [3:0] $end
$var wire 4 ? cent [3:0] $end
$var wire 16 @ bin [15:0] $end
$scope module c0 $end
$var wire 4 A digit [3:0] $end
$var reg 1 B ge5 $end
$upscope $end
$scope module c1 $end
$var wire 4 C digit [3:0] $end
$var reg 1 D ge5 $end
$upscope $end
$scope module c2 $end
$var wire 4 E digit [3:0] $end
$var reg 1 F ge5 $end
$upscope $end
$scope module c3 $end
$var wire 4 G digit [3:0] $end
$var reg 1 H ge5 $end
$upscope $end
$scope module c4 $end
$var wire 4 I digit [3:0] $end
$var reg 1 J ge5 $end
$upscope $end
$scope module cnt0 $end
$var wire 1 $ clk $end
$var wire 1 0 init $end
$var wire 1 ( rst $end
$var wire 1 8 dec $end
$var reg 5 K count [4:0] $end
$var reg 1 3 z $end
$upscope $end
$scope module control0 $end
$var wire 1 $ clk $end
$var wire 5 L ge5 [4:0] $end
$var wire 1 0 init $end
$var wire 1 ( rst $end
$var wire 1 3 z $end
$var parameter 3 M CHECK $end
$var parameter 3 N END1 $end
$var parameter 3 O SHIFT $end
$var parameter 3 P START $end
$var parameter 3 Q SUB $end
$var reg 1 8 dec $end
$var reg 1 , done $end
$var reg 5 R sel_sub [4:0] $end
$var reg 3 S state [2:0] $end
$var reg 160 T state_name [160:1] $end
$var reg 1 5 w_sh $end
$var reg 1 4 w_sub $end
$upscope $end
$scope module rsr0 $end
$var wire 36 U A_in [35:0] $end
$var wire 20 V bcd [19:0] $end
$var wire 1 $ clk $end
$var wire 1 0 init $end
$var wire 1 ( rst $end
$var wire 1 5 sh $end
$var wire 1 4 sub $end
$var reg 36 W A [35:0] $end
$upscope $end
$scope module s0 $end
$var wire 4 X digit [3:0] $end
$var wire 1 Y ge5 $end
$var wire 1 Z sub $end
$var reg 4 [ digit_out [3:0] $end
$upscope $end
$scope module s1 $end
$var wire 4 \ digit [3:0] $end
$var wire 1 ] ge5 $end
$var wire 1 ^ sub $end
$var reg 4 _ digit_out [3:0] $end
$upscope $end
$scope module s2 $end
$var wire 4 ` digit [3:0] $end
$var wire 1 a ge5 $end
$var wire 1 b sub $end
$var reg 4 c digit_out [3:0] $end
$upscope $end
$scope module s3 $end
$var wire 4 d digit [3:0] $end
$var wire 1 e ge5 $end
$var wire 1 f sub $end
$var reg 4 g digit_out [3:0] $end
$upscope $end
$scope module s4 $end
$var wire 4 h digit [3:0] $end
$var wire 1 i ge5 $end
$var wire 1 j sub $end
$var reg 4 k digit_out [3:0] $end
$upscope $end
$upscope $end
$upscope $end
$scope begin TEST_CASE $end
$upscope $end
$upscope $end
$enddefinitions $end
$comment Show the parameter values. $end
$dumpall
b11 Q
b0 P
b1 O
b100 N
b10 M
b10100 "
$end
#0
$dumpvars
bx k
xj
xi
bx h
bx g
xf
xe
bx d
bx c
xb
xa
bx `
bx _
x^
x]
bx \
bx [
xZ
xY
bx X
bx W
bx V
bx U
bx T
bx S
bx R
bx L
bx K
xJ
bx I
xH
bx G
xF
bx E
xD
bx C
xB
bx A
bx @
bx ?
bx >
bx =
bx <
bx ;
bx :
bx 9
x8
bx 7
bx 6
x5
x4
x3
bx 2
b0 1
x0
bx /
bx .
bx -
x,
b0 +
b0 *
0)
0(
0'
b0 &
0%
0$
b0 #
bx !
$end
#10000
0i
0e
0a
0]
0Y
b0 ;
b0 k
b0 >
b0 g
b0 ?
b0 c
b0 <
b0 _
b0 =
b0 [
0J
0H
0F
0D
b0 7
b0 L
0B
0j
0f
0b
0^
0Z
b0 -
b0 @
b0 9
b0 U
b0 h
b0 d
b0 `
b0 \
b0 X
b0 I
b0 G
b0 E
b0 C
b0 A
b101001101010100010000010101001001010100 T
b0 6
b0 R
08
04
05
0,
b0 :
b0 W
03
b10000 K
b0 S
b0 .
b0 2
b0 V
00
b0 !
b0 /
1(
1$
#20000
0$
#30000
0(
1$
#40000
0$
#50000
1$
#60000
0$
#70000
1$
#80000
0$
#90000
1$
#100000
0$
#110000
b10001101000101 .
b10001101000101 2
b10001101000101 V
1$
b1 1
b100 #
b100 *
b10001101000101 +
b10001101000101 &
1)
1%
#120000
0$
#130000
1$
b0 1
0)
0%
#140000
0$
#150000
1$
#160000
0$
#170000
1$
#180000
0$
#190000
1$
#200000
0$
#210000
1i
b101 ;
b101 k
b100 >
b100 g
b11 ?
b11 c
b100011010001010000000000000000 9
b100011010001010000000000000000 U
b10 <
b10 _
b1 7
b1 L
1J
b101 h
b100 d
b11 `
b10 \
b101 I
b100 G
b11 E
b10 C
b101001101001000010010010100011001010100 T
18
15
b100011010001010000000000000000 :
b100011010001010000000000000000 W
b1 S
10
1$
b10 1
b1100 #
b1100 *
b1 +
b1 &
1)
1%
#220000
0$
#230000
b100001101001000010001010100001101001011 T
b1 6
b1 R
08
05
b10 S
1$
b0 1
0)
0%
#240000
0$
#250000
b100011010000100000000000000000 9
b100011010000100000000000000000 U
b10 ;
b10 k
1j
b10100110101010101000010 T
14
b11 S
1$
#260000
0$
#270000
b100011010001010000000000000000 9
b100011010001010000000000000000 U
b101 ;
b101 k
0j
b101001101001000010010010100011001010100 T
b0 6
b0 R
18
04
15
b1 S
1$
#280000
0$
#290000
b100001101001000010001010100001101001011 T
b1 6
b1 R
08
05
b10 S
1$
#300000
0$
#310000
b100011010000100000000000000000 9
b100011010000100000000000000000 U
b10 ;
b10 k
1j
b10100110101010101000010 T
14
b11 S
1$
#320000
0$
#330000
b100011010001010000000000000000 9
b100011010001010000000000000000 U
b101 ;
b101 k
0j
b101001101001000010010010100011001010100 T
b0 6
b0 R
18
04
15
b1 S
1$
#340000
0$
#350000
b100001101001000010001010100001101001011 T
b1 6
b1 R
08
05
b10 S
1$
#360000
0$
#370000
b100011010000100000000000000000 9
b100011010000100000000000000000 U
b10 ;
b10 k
1j
b10100110101010101000010 T
14
b11 S
1$
#380000
0$
#390000
b100011010001010000000000000000 9
b100011010001010000000000000000 U
b101 ;
b101 k
0j
b101001101001000010010010100011001010100 T
b0 6
b0 R
18
04
15
b1 S
1$
#400000
0$
#410000
b100001101001000010001010100001101001011 T
b1 6
b1 R
08
05
b10 S
1$
#420000
0$
#430000
b100011010000100000000000000000 9
b100011010000100000000000000000 U
b10 ;
b10 k
1j
b10100110101010101000010 T
14
b11 S
1$
#440000
0$
#450000
b100011010001010000000000000000 9
b100011010001010000000000000000 U
b101 ;
b101 k
0j
b101001101001000010010010100011001010100 T
b0 6
b0 R
18
04
15
b1 S
1$
#460000
0$
#470000
b100001101001000010001010100001101001011 T
b1 6
b1 R
08
05
b10 S
1$
#480000
0$
#490000
b100011010000100000000000000000 9
b100011010000100000000000000000 U
b10 ;
b10 k
1j
b10100110101010101000010 T
14
b11 S
1$
#500000
0$
#510000
b100011010001010000000000000000 9
b100011010001010000000000000000 U
b101 ;
b101 k
0j
b101001101001000010010010100011001010100 T
b0 6
b0 R
18
04
15
b1 S
1$
#520000
0$
#530000
b100001101001000010001010100001101001011 T
b1 6
b1 R
08
05
b10 S
1$
#540000
0$
#550000
b100011010000100000000000000000 9
b100011010000100000000000000000 U
b10 ;
b10 k
1j
b10100110101010101000010 T
14
b11 S
1$
#560000
0$
#570000
b100011010001010000000000000000 9
b100011010001010000000000000000 U
b101 ;
b101 k
0j
b101001101001000010010010100011001010100 T
b0 6
b0 R
18
04
15
b1 S
1$
#580000
0$
#590000
b100001101001000010001010100001101001011 T
b1 6
b1 R
08
05
b10 S
1$
#600000
0$
#610000
b100011010000100000000000000000 9
b100011010000100000000000000000 U
b10 ;
b10 k
1j
b10100110101010101000010 T
14
b11 S
1$
#620000
0$
#630000
b100011010001010000000000000000 9
b100011010001010000000000000000 U
b101 ;
b101 k
0j
b101001101001000010010010100011001010100 T
b0 6
b0 R
18
04
15
b1 S
1$
#640000
0$
#650000
b100001101001000010001010100001101001011 T
b1 6
b1 R
08
05
b10 S
1$
#660000
0$
#670000
b100011010000100000000000000000 9
b100011010000100000000000000000 U
b10 ;
b10 k
1j
b10100110101010101000010 T
14
b11 S
1$
#680000
0$
#690000
b100011010001010000000000000000 9
b100011010001010000000000000000 U
b101 ;
b101 k
0j
b101001101001000010010010100011001010100 T
b0 6
b0 R
18
04
15
b1 S
1$
#700000
0$
#710000
b100001101001000010001010100001101001011 T
b1 6
b1 R
08
05
b10 S
1$
#720000
0$
#730000
b100011010000100000000000000000 9
b100011010000100000000000000000 U
b10 ;
b10 k
1j
b10100110101010101000010 T
14
b11 S
1$
#740000
0$
#750000
b100011010001010000000000000000 9
b100011010001010000000000000000 U
b101 ;
b101 k
0j
b101001101001000010010010100011001010100 T
b0 6
b0 R
18
04
15
b1 S
1$
#760000
0$
#770000
b100001101001000010001010100001101001011 T
b1 6
b1 R
08
05
b10 S
1$
#780000
0$
#790000
b100011010000100000000000000000 9
b100011010000100000000000000000 U
b10 ;
b10 k
1j
b10100110101010101000010 T
14
b11 S
1$
#800000
0$
#810000
b100011010001010000000000000000 9
b100011010001010000000000000000 U
b101 ;
b101 k
0j
b101001101001000010010010100011001010100 T
b0 6
b0 R
18
04
15
b1 S
1$
#820000
0$
#830000
b100001101001000010001010100001101001011 T
b1 6
b1 R
08
05
b10 S
1$
#840000
0$
#850000
b100011010000100000000000000000 9
b100011010000100000000000000000 U
b10 ;
b10 k
1j
b10100110101010101000010 T
14
b11 S
1$
#860000
0$
#870000
b100011010001010000000000000000 9
b100011010001010000000000000000 U
b101 ;
b101 k
0j
b101001101001000010010010100011001010100 T
b0 6
b0 R
18
04
15
b1 S
1$
#880000
0$
#890000
b100001101001000010001010100001101001011 T
b1 6
b1 R
08
05
b10 S
1$
#900000
0$
#910000
b100011010000100000000000000000 9
b100011010000100000000000000000 U
b10 ;
b10 k
1j
b10100110101010101000010 T
14
b11 S
1$
#920000
0$
#930000
b100011010001010000000000000000 9
b100011010001010000000000000000 U
b101 ;
b101 k
0j
b101001101001000010010010100011001010100 T
b0 6
b0 R
18
04
15
b1 S
1$
#940000
0$
#950000
b100001101001000010001010100001101001011 T
b1 6
b1 R
08
05
b10 S
1$
#960000
0$
#970000
b100011010000100000000000000000 9
b100011010000100000000000000000 U
b10 ;
b10 k
1j
b10100110101010101000010 T
14
b11 S
1$
#980000
0$
#990000
b100011010001010000000000000000 9
b100011010001010000000000000000 U
b101 ;
b101 k
0j
b101001101001000010010010100011001010100 T
b0 6
b0 R
18
04
15
b1 S
1$
#1000000
0$
#1010000
b100001101001000010001010100001101001011 T
b1 6
b1 R
08
05
b10 S
1$
#1020000
0$
#1030000
b100011010000100000000000000000 9
b100011010000100000000000000000 U
b10 ;
b10 k
1j
b10100110101010101000010 T
14
b11 S
1$
#1040000
0$
#1050000
b100011010001010000000000000000 9
b100011010001010000000000000000 U
b101 ;
b101 k
0j
b101001101001000010010010100011001010100 T
b0 6
b0 R
18
04
15
b1 S
1$
#1060000
0$
#1070000
b100001101001000010001010100001101001011 T
b1 6
b1 R
08
05
b10 S
1$
#1080000
0$
#1090000
b100011010000100000000000000000 9
b100011010000100000000000000000 U
b10 ;
b10 k
1j
b10100110101010101000010 T
14
b11 S
1$
#1100000
0$
#1110000
b100011010001010000000000000000 9
b100011010001010000000000000000 U
b101 ;
b101 k
0j
b101001101001000010010010100011001010100 T
b0 6
b0 R
18
04
15
b1 S
1$
#1120000
0$
#1130000
b100001101001000010001010100001101001011 T
b1 6
b1 R
08
05
b10 S
1$
#1140000
0$
#1150000
b100011010000100000000000000000 9
b100011010000100000000000000000 U
b10 ;
b10 k
1j
b10100110101010101000010 T
14
b11 S
1$
#1160000
0$
#1170000
b100011010001010000000000000000 9
b100011010001010000000000000000 U
b101 ;
b101 k
0j
b101001101001000010010010100011001010100 T
b0 6
b0 R
18
04
15
b1 S
1$
#1180000
0$
#1190000
b100001101001000010001010100001101001011 T
b1 6
b1 R
08
05
b10 S
1$
#1200000
0$
#1210000
b100011010000100000000000000000 9
b100011010000100000000000000000 U
b10 ;
b10 k
1j
b10100110101010101000010 T
14
b11 S
1$
#1220000
0$
#1230000
b100011010001010000000000000000 9
b100011010001010000000000000000 U
b101 ;
b101 k
0j
b101001101001000010010010100011001010100 T
b0 6
b0 R
18
04
15
b1 S
1$
#1240000
0$
#1250000
b100001101001000010001010100001101001011 T
b1 6
b1 R
08
05
b10 S
1$
#1260000
0$
#1270000
b100011010000100000000000000000 9
b100011010000100000000000000000 U
b10 ;
b10 k
1j
b10100110101010101000010 T
14
b11 S
1$
#1280000
0$
#1290000
b100011010001010000000000000000 9
b100011010001010000000000000000 U
b101 ;
b101 k
0j
b101001101001000010010010100011001010100 T
b0 6
b0 R
18
04
15
b1 S
1$
#1300000
0$
#1310000
b100001101001000010001010100001101001011 T
b1 6
b1 R
08
05
b10 S
1$
#1320000
0$
#1330000
b100011010000100000000000000000 9
b100011010000100000000000000000 U
b10 ;
b10 k
1j
b10100110101010101000010 T
14
b11 S
1$
#1340000
0$
#1350000
b100011010001010000000000000000 9
b100011010001010000000000000000 U
b101 ;
b101 k
0j
b101001101001000010010010100011001010100 T
b0 6
b0 R
18
04
15
b1 S
1$
#1360000
0$
#1370000
b100001101001000010001010100001101001011 T
b1 6
b1 R
08
05
b10 S
1$
#1380000
0$
#1390000
b100011010000100000000000000000 9
b100011010000100000000000000000 U
b10 ;
b10 k
1j
b10100110101010101000010 T
14
b11 S
1$
#1400000
0$
#1410000
b100011010001010000000000000000 9
b100011010001010000000000000000 U
b101 ;
b101 k
0j
b101001101001000010010010100011001010100 T
b0 6
b0 R
18
04
15
b1 S
1$
#1420000
0$
#1430000
b100001101001000010001010100001101001011 T
b1 6
b1 R
08
05
b10 S
1$
#1440000
0$
#1450000
b100011010000100000000000000000 9
b100011010000100000000000000000 U
b10 ;
b10 k
1j
b10100110101010101000010 T
14
b11 S
1$
#1460000
0$
#1470000
b100011010001010000000000000000 9
b100011010001010000000000000000 U
b101 ;
b101 k
0j
b101001101001000010010010100011001010100 T
b0 6
b0 R
18
04
15
b1 S
1$
#1480000
0$
#1490000
b100001101001000010001010100001101001011 T
b1 6
b1 R
08
05
b10 S
1$
#1500000
0$
#1510000
b100011010000100000000000000000 9
b100011010000100000000000000000 U
b10 ;
b10 k
1j
b10100110101010101000010 T
14
b11 S
1$
#1520000
0$
#1530000
b100011010001010000000000000000 9
b100011010001010000000000000000 U
b101 ;
b101 k
0j
b101001101001000010010010100011001010100 T
b0 6
b0 R
18
04
15
b1 S
1$
#1540000
0$
#1550000
b100001101001000010001010100001101001011 T
b1 6
b1 R
08
05
b10 S
1$
#1560000
0$
#1570000
b100011010000100000000000000000 9
b100011010000100000000000000000 U
b10 ;
b10 k
1j
b10100110101010101000010 T
14
b11 S
1$
#1580000
0$
#1590000
b100011010001010000000000000000 9
b100011010001010000000000000000 U
b101 ;
b101 k
0j
b101001101001000010010010100011001010100 T
b0 6
b0 R
18
04
15
b1 S
1$
#1600000
0$
#1610000
b100001101001000010001010100001101001011 T
b1 6
b1 R
08
05
b10 S
1$
#1620000
0$
#1630000
b100011010000100000000000000000 9
b100011010000100000000000000000 U
b10 ;
b10 k
1j
b10100110101010101000010 T
14
b11 S
1$
#1640000
0$
#1650000
b100011010001010000000000000000 9
b100011010001010000000000000000 U
b101 ;
b101 k
0j
b101001101001000010010010100011001010100 T
b0 6
b0 R
18
04
15
b1 S
1$
#1660000
0$
#1670000
b100001101001000010001010100001101001011 T
b1 6
b1 R
08
05
b10 S
1$
#1680000
0$
#1690000
b100011010000100000000000000000 9
b100011010000100000000000000000 U
b10 ;
b10 k
1j
b10100110101010101000010 T
14
b11 S
1$
#1700000
0$
#1710000
b100011010001010000000000000000 9
b100011010001010000000000000000 U
b101 ;
b101 k
0j
b101001101001000010010010100011001010100 T
b0 6
b0 R
18
04
15
b1 S
1$
#1720000
0$
#1730000
b100001101001000010001010100001101001011 T
b1 6
b1 R
08
05
b10 S
1$
#1740000
0$
#1750000
b100011010000100000000000000000 9
b100011010000100000000000000000 U
b10 ;
b10 k
1j
b10100110101010101000010 T
14
b11 S
1$
#1760000
0$
#1770000
b100011010001010000000000000000 9
b100011010001010000000000000000 U
b101 ;
b101 k
0j
b101001101001000010010010100011001010100 T
b0 6
b0 R
18
04
15
b1 S
1$
#1780000
0$
#1790000
b100001101001000010001010100001101001011 T
b1 6
b1 R
08
05
b10 S
1$
#1800000
0$
#1810000
b100011010000100000000000000000 9
b100011010000100000000000000000 U
b10 ;
b10 k
1j
b10100110101010101000010 T
14
b11 S
1$
#1820000
0$
#1830000
b100011010001010000000000000000 9
b100011010001010000000000000000 U
b101 ;
b101 k
0j
b101001101001000010010010100011001010100 T
b0 6
b0 R
18
04
15
b1 S
1$
#1840000
0$
#1850000
b100001101001000010001010100001101001011 T
b1 6
b1 R
08
05
b10 S
1$
#1860000
0$
#1870000
b100011010000100000000000000000 9
b100011010000100000000000000000 U
b10 ;
b10 k
1j
b10100110101010101000010 T
14
b11 S
1$
#1880000
0$
#1890000
b100011010001010000000000000000 9
b100011010001010000000000000000 U
b101 ;
b101 k
0j
b101001101001000010010010100011001010100 T
b0 6
b0 R
18
04
15
b1 S
1$
#1900000
0$
#1910000
b100001101001000010001010100001101001011 T
b1 6
b1 R
08
05
b10 S
1$
#1920000
0$
#1930000
b100011010000100000000000000000 9
b100011010000100000000000000000 U
b10 ;
b10 k
1j
b10100110101010101000010 T
14
b11 S
1$
#1940000
0$
#1950000
b100011010001010000000000000000 9
b100011010001010000000000000000 U
b101 ;
b101 k
0j
b101001101001000010010010100011001010100 T
b0 6
b0 R
18
04
15
b1 S
1$
#1960000
0$
#1970000
b100001101001000010001010100001101001011 T
b1 6
b1 R
08
05
b10 S
1$
#1980000
0$
#1990000
b100011010000100000000000000000 9
b100011010000100000000000000000 U
b10 ;
b10 k
1j
b10100110101010101000010 T
14
b11 S
1$
